{
  "_embedded": {
    "events": [
      {
        "name": "Imagine Dragons: Mercury World Tour",
        "type": "event",
        "id": "Z7r9jZ1Ad8S4v",
        "test": false,
        "url": "https://www.ticketmaster.com/event/Z7r9jZ1Ad8S4v",
        "locale": "en-us",
        "images": [
          {
            "ratio": "16_9",
            "url": "https://s1.ticketm.net/dam/a/c90/67a18d21-394f-4afe-84f9-15560d797c90_1652911_RETINA_LANDSCAPE_16_9.jpg",
            "width": 1136,
            "height": 639,
            "fallback": false
          },
          {
            "ratio": "3_2",
            "url": "https://s1.ticketm.net/dam/a/c90/67a18d21-394f-4afe-84f9-15560d797c90_1652911_RETINA_PORTRAIT_3_2.jpg",
            "width": 640,
            "height": 427,
            "fallback": false
          },
          {
            "ratio": "16_9",
            "url": "https://s1.ticketm.net/dam/a/c90/67a18d21-394f-4afe-84f9-15560d797c90_1652911_TABLET_LANDSCAPE_16_9.jpg",
            "width": 1024,
            "height": 576,
            "fallback": false
          },
          {
            "ratio": "16_9",
            "url": "https://s1.ticketm.net/dam/a/c90/67a18d21-394f-4afe-84f9-15560d797c90_1652911_RECOMENDATION_16_9.jpg",
            "width": 100,
            "height": 56,
            "fallback": false
          },
          {
            "ratio": "16_9",
            "url": "https://s1.ticketm.net/dam/a/c90/67a18d21-394f-4afe-84f9-15560d797c90_1652911_TABLET_LANDSCAPE_LARGE_16_9.jpg",
            "width": 2048,
            "height": 1152,
            "fallback": false
          },
          {
            "ratio": "3_2",
            "url": "https://s1.ticketm.net/dam/a/c90/67a18d21-394f-4afe-84f9-15560d797c90_1652911_TABLET_LANDSCAPE_3_2.jpg",
            "width": 1024,
            "height": 683,
            "fallback": false
          },
          {
            "ratio": "16_9",
            "url": "https://s1.ticketm.net/dam/a/c90/67a18d21-394f-4afe-84f9-15560d797c90_1652911_EVENT_DETAIL_PAGE_16_9.jpg",
            "width": 205,
            "height": 115,
            "fallback": false
          },
          {
            "ratio": "16_9",
            "url": "https://s1.ticketm.net/dam/a/c90/67a18d21-394f-4afe-84f9-15560d797c90_1652911_RETINA_PORTRAIT_16_9.jpg",
            "width": 640,
            "height": 360,
            "fallback": false
          },
          {
            "ratio": "4_3",
            "url": "https://s1.ticketm.net/dam/a/c90/67a18d21-394f-4afe-84f9-15560d797c90_1652911_CUSTOM.jpg",
            "width": 305,
            "height": 225,
            "fallback": false
          },
          {
            "ratio": "3_2",
            "url": "https://s1.ticketm.net/dam/a/c90/67a18d21-394f-4afe-84f9-15560d797c90_1652911_ARTIST_PAGE_3_2.jpg",
            "width": 305,
            "height": 203,
            "fallback": false
          }
        ],
        "sales": {
          "public": {
            "startDateTime": "2022-04-01T14:00:00Z",
            "startTBD": false,
            "startTBA": false,
            "endDateTime": "2022-08-20T22:15:00Z"
          }
        },
        "dates": {
          "start": {
            "localDate": "2022-08-20",
            "localTime": "18:15:00",
            "dateTime": "2022-08-20T22:15:00Z",
            "dateTBD": false,
            "dateTBA": false,
            "timeTBA": false,
            "noSpecificTime": false
          },
          "status": {
            "code": "onsale"
          },
          "spanMultipleDays": false
        },
        "classifications": [
          {
            "primary": true,
            "segment": {
              "id": "KZFzniwnSyZfZ7v7nJ",
              "name": "Music"
            },
            "genre": {
              "id": "KnvZfZ7vAev",
              "name": "Pop"
            },
            "subGenre": {
              "id": "KZazBEonSMnZfZ7vkEl",
              "name": "Pop Rock"
            },
            "family": false
          }
        ],
        "promoter": {
          "id": "653",
          "name": "LIVE NATION MUSIC",
          "description": "LIVE NATION MUSIC / NTL / USA"
        },
        "promoters": [
          {
            "id": "653",
            "name": "LIVE NATION MUSIC",
            "description": "LIVE NATION MUSIC / NTL / USA"
          }
        ],
        "outlets": [
          {
            "url": "http://www.redsox.com/imaginedragons",
            "type": "venueBoxOffice"
          },
          {
            "url": "https://www.ticketmaster.com/imagine-dragons-mercury-world-tour-boston-massachusetts-08-20-2022/event/Zu0FM1R0e5taqAD",
            "type": "tmMarketPlace"
          }
        ],
        "seatmap": {
          "staticUrl": "https://content.resale.ticketmaster.com/maps/551-1-2-main.gif"
        },
        "_links": {
          "self": {
            "href": "/discovery/v2/events/Z7r9jZ1Ad8S4v?locale=en-us"
          },
          "attractions": [
            {
              "href": "/discovery/v2/attractions/K8vZ917GSz7?locale=en-us"
            },
            {
              "href": "/discovery/v2/attractions/K8vZ917pG-f?locale=en-us"
            },
            {
              "href": "/discovery/v2/attractions/Z7r9jZa8PM?locale=en-us"
            }
          ],
          "venues": [
            {
              "href": "/discovery/v2/venues/Z6r9jZkkee?locale=en-us"
            }
          ]
        },
        "_embedded": {
          "venues": [
            {
              "name": "Fenway Park",
              "type": "venue",
              "id": "Z6r9jZkkee",
              "test": false,
              "locale": "en-us",
              "postalCode": "02215",
              "timezone": "America/New_York",
              "city": {
                "name": "Boston"
              },
              "state": {
                "name": "Massachusetts",
                "stateCode": "MA"
              },
              "country": {
                "name": "United States Of America",
                "countryCode": "US"
              },
              "address": {
                "line1": "4 Yawkey Way"
              },
              "location": {
                "longitude": "-71.102501",
                "latitude": "42.346901"
              },
              "dmas": [
                {
                  "id": 235
                }
              ],
              "upcomingEvents": {
                "_total": 57,
                "tmr": 45,
                "ticketmaster": 12,
                "_filtered": 0
              },
              "_links": {
                "self": {
                  "href": "/discovery/v2/venues/Z6r9jZkkee?locale=en-us"
                }
              }
            }
          ],
          "attractions": [
            {
              "name": "Imagine Dragons",
              "type": "attraction",
              "id": "K8vZ917GSz7",
              "test": false,
              "url": "https://www.ticketmaster.com/imagine-dragons-tickets/artist/1435919",
              "locale": "en-us",
              "externalLinks": {
                "youtube": [
                  {
                    "url": "https://www.youtube.com/channel/UCT9zcQNlyht7fRlcjmflRSA"
                  }
                ],
                "twitter": [
                  {
                    "url": "https://twitter.com/Imaginedragons"
                  }
                ],
                "itunes": [
                  {
                    "url": "https://music.apple.com/us/artist/imagine-dragons/358714030"
                  }
                ],
                "lastfm": [
                  {
                    "url": "http://www.last.fm/music/Imagine+Dragons"
                  }
                ],
                "facebook": [
                  {
                    "url": "https://www.facebook.com/ImagineDragons"
                  }
                ],
                "wiki": [
                  {
                    "url": "https://en.wikipedia.org/wiki/Imagine_Dragons"
                  }
                ],
                "spotify": [
                  {
                    "url": "https://open.spotify.com/artist/53XhwfbYqKCa1cC15pYq2q"
                  }
                ],
                "instagram": [
                  {
                    "url": "http://instagram.com/imaginedragons/"
                  },
                  {
                    "url": "http://instagram.com/imaginedragons"
                  }
                ],
                "musicbrainz": [
                  {
                    "id": "012151a8-0f9a-44c9-997f-ebd68b5389f9"
                  }
                ],
                "homepage": [
                  {
                    "url": "http://www.imaginedragonsmusic.com/"
                  }
                ]
              },
              "images": [
                {
                  "ratio": "16_9",
                  "url": "https://s1.ticketm.net/dam/a/c90/67a18d21-394f-4afe-84f9-15560d797c90_1652911_RETINA_LANDSCAPE_16_9.jpg",
                  "width": 1136,
                  "height": 639,
                  "fallback": false
                },
                {
                  "ratio": "3_2",
                  "url": "https://s1.ticketm.net/dam/a/c90/67a18d21-394f-4afe-84f9-15560d797c90_1652911_RETINA_PORTRAIT_3_2.jpg",
                  "width": 640,
                  "height": 427,
                  "fallback": false
                },
                {
                  "ratio": "16_9",
                  "url": "https://s1.ticketm.net/dam/a/c90/67a18d21-394f-4afe-84f9-15560d797c90_1652911_TABLET_LANDSCAPE_16_9.jpg",
                  "width": 1024,
                  "height": 576,
                  "fallback": false
                },
                {
                  "ratio": "16_9",
                  "url": "https://s1.ticketm.net/dam/a/c90/67a18d21-394f-4afe-84f9-15560d797c90_1652911_RECOMENDATION_16_9.jpg",
                  "width": 100,
                  "height": 56,
                  "fallback": false
                },
                {
                  "ratio": "16_9",
                  "url": "https://s1.ticketm.net/dam/a/c90/67a18d21-394f-4afe-84f9-15560d797c90_1652911_TABLET_LANDSCAPE_LARGE_16_9.jpg",
                  "width": 2048,
                  "height": 1152,
                  "fallback": false
                },
                {
                  "ratio": "3_2",
                  "url": "https://s1.ticketm.net/dam/a/c90/67a18d21-394f-4afe-84f9-15560d797c90_1652911_TABLET_LANDSCAPE_3_2.jpg",
                  "width": 1024,
                  "height": 683,
                  "fallback": false
                },
                {
                  "ratio": "16_9",
                  "url": "https://s1.ticketm.net/dam/a/c90/67a18d21-394f-4afe-84f9-15560d797c90_1652911_EVENT_DETAIL_PAGE_16_9.jpg",
                  "width": 205,
                  "height": 115,
                  "fallback": false
                },
                {
                  "ratio": "16_9",
                  "url": "https://s1.ticketm.net/dam/a/c90/67a18d21-394f-4afe-84f9-15560d797c90_1652911_RETINA_PORTRAIT_16_9.jpg",
                  "width": 640,
                  "height": 360,
                  "fallback": false
                },
                {
                  "ratio": "4_3",
                  "url": "https://s1.ticketm.net/dam/a/c90/67a18d21-394f-4afe-84f9-15560d797c90_1652911_CUSTOM.jpg",
                  "width": 305,
                  "height": 225,
                  "fallback": false
                },
                {
                  "ratio": "3_2",
                  "url": "https://s1.ticketm.net/dam/a/c90/67a18d21-394f-4afe-84f9-15560d797c90_1652911_ARTIST_PAGE_3_2.jpg",
                  "width": 305,
                  "height": 203,
                  "fallback": false
                }
              ],
              "classifications": [
                {
                  "primary": true,
                  "segment": {
                    "id": "KZFzniwnSyZfZ7v7nJ",
                    "name": "Music"
                  },
                  "genre": {
                    "id": "KnvZfZ7vAeA",
                    "name": "Rock"
                  },
                  "subGenre": {
                    "id": "KZazBEonSMnZfZ7v6F1",
                    "name": "Pop"
                  },
                  "type": {
                    "id": "KZAyXgnZfZ7v7nI",
                    "name": "Undefined"
                  },
                  "subType": {
                    "id": "KZFzBErXgnZfZ7v7lJ",
                    "name": "Undefined"
                  },
                  "family": false
                }
              ],
              "upcomingEvents": {
                "_total": 25,
                "tmr": 1,
                "mfx-za": 2,
                "ticketmaster": 22,
                "_filtered": 0
              },
              "_links": {
                "self": {
                  "href": "/discovery/v2/attractions/K8vZ917GSz7?locale=en-us"
                }
              }
            },
            {
              "name": "Macklemore",
              "type": "attraction",
              "id": "K8vZ917pG-f",
              "test": false,
              "url": "https://www.ticketmaster.com/macklemore-tickets/artist/2400469",
              "locale": "en-us",
              "externalLinks": {
                "youtube": [
                  {
                    "url": "https://www.youtube.com/user/RyanLewisProductions"
                  }
                ],
                "twitter": [
                  {
                    "url": "https://twitter.com/macklemore"
                  }
                ],
                "lastfm": [
                  {
                    "url": "https://www.last.fm/music/Macklemore"
                  }
                ],
                "facebook": [
                  {
                    "url": "https://www.facebook.com/Macklemore"
                  }
                ],
                "musicbrainz": [
                  {
                    "id": "b6d7ec94-830c-44dd-b699-ce66556b7e55"
                  }
                ],
                "homepage": [
                  {
                    "url": "http://macklemore.com/"
                  }
                ]
              },
              "images": [
                {
                  "ratio": "4_3",
                  "url": "https://s1.ticketm.net/dam/a/e68/18f65099-4c1a-4325-94fc-a6e2e7213e68_1315791_CUSTOM.jpg",
                  "width": 305,
                  "height": 225,
                  "fallback": false
                },
                {
                  "ratio": "3_2",
                  "url": "https://s1.ticketm.net/dam/a/e68/18f65099-4c1a-4325-94fc-a6e2e7213e68_1315791_ARTIST_PAGE_3_2.jpg",
                  "width": 305,
                  "height": 203,
                  "fallback": false
                },
                {
                  "ratio": "3_2",
                  "url": "https://s1.ticketm.net/dam/a/e68/18f65099-4c1a-4325-94fc-a6e2e7213e68_1315791_TABLET_LANDSCAPE_3_2.jpg",
                  "width": 1024,
                  "height": 683,
                  "fallback": false
                },
                {
                  "ratio": "16_9",
                  "url": "https://s1.ticketm.net/dam/a/e68/18f65099-4c1a-4325-94fc-a6e2e7213e68_1315791_RETINA_PORTRAIT_16_9.jpg",
                  "width": 640,
                  "height": 360,
                  "fallback": false
                },
                {
                  "ratio": "16_9",
                  "url": "https://s1.ticketm.net/dam/a/e68/18f65099-4c1a-4325-94fc-a6e2e7213e68_1315791_TABLET_LANDSCAPE_LARGE_16_9.jpg",
                  "width": 2048,
                  "height": 1152,
                  "fallback": false
                },
                {
                  "ratio": "16_9",
                  "url": "https://s1.ticketm.net/dam/a/e68/18f65099-4c1a-4325-94fc-a6e2e7213e68_1315791_RECOMENDATION_16_9.jpg",
                  "width": 100,
                  "height": 56,
                  "fallback": false
                },
                {
                  "ratio": "16_9",
                  "url": "https://s1.ticketm.net/dam/a/e68/18f65099-4c1a-4325-94fc-a6e2e7213e68_1315791_RETINA_LANDSCAPE_16_9.jpg",
                  "width": 1136,
                  "height": 639,
                  "fallback": false
                },
                {
                  "ratio": "16_9",
                  "url": "https://s1.ticketm.net/dam/a/e68/18f65099-4c1a-4325-94fc-a6e2e7213e68_1315791_EVENT_DETAIL_PAGE_16_9.jpg",
                  "width": 205,
                  "height": 115,
                  "fallback": false
                },
                {
                  "ratio": "16_9",
                  "url": "https://s1.ticketm.net/dam/a/e68/18f65099-4c1a-4325-94fc-a6e2e7213e68_1315791_TABLET_LANDSCAPE_16_9.jpg",
                  "width": 1024,
                  "height": 576,
                  "fallback": false
                },
                {
                  "ratio": "3_2",
                  "url": "https://s1.ticketm.net/dam/a/e68/18f65099-4c1a-4325-94fc-a6e2e7213e68_1315791_RETINA_PORTRAIT_3_2.jpg",
                  "width": 640,
                  "height": 427,
                  "fallback": false
                }
              ],
              "classifications": [
                {
                  "primary": true,
                  "segment": {
                    "id": "KZFzniwnSyZfZ7v7nJ",
                    "name": "Music"
                  },
                  "genre": {
                    "id": "KnvZfZ7vAv1",
                    "name": "Hip-Hop/Rap"
                  },
                  "subGenre": {
                    "id": "KZazBEonSMnZfZ7vkvl",
                    "name": "Hip-Hop/Rap"
                  },
                  "type": {
                    "id": "KZAyXgnZfZ7v7la",
                    "name": "Individual"
                  },
                  "subType": {
                    "id": "KZFzBErXgnZfZ7vAd7",
                    "name": "Musician"
                  },
                  "family": false
                }
              ],
              "upcomingEvents": {
                "_total": 22,
                "tmr": 1,
                "mfx-de": 1,
                "ticketmaster": 20,
                "_filtered": 0
              },
              "_links": {
                "self": {
                  "href": "/discovery/v2/attractions/K8vZ917pG-f?locale=en-us"
                }
              }
            },
            {
              "name": "Kings Elliot",
              "type": "attraction",
              "id": "Z7r9jZa8PM",
              "test": false,
              "locale": "en-us",
              "images": [
                {
                  "ratio": "4_3",
                  "url": "https://s1.ticketm.net/dam/c/060/c5c08e7a-9912-456c-a060-2758be94e060_105881_CUSTOM.jpg",
                  "width": 305,
                  "height": 225,
                  "fallback": true
                },
                {
                  "ratio": "16_9",
                  "url": "https://s1.ticketm.net/dam/c/060/c5c08e7a-9912-456c-a060-2758be94e060_105881_TABLET_LANDSCAPE_16_9.jpg",
                  "width": 1024,
                  "height": 576,
                  "fallback": true
                },
                {
                  "ratio": "16_9",
                  "url": "https://s1.ticketm.net/dam/c/060/c5c08e7a-9912-456c-a060-2758be94e060_105881_RETINA_LANDSCAPE_16_9.jpg",
                  "width": 1136,
                  "height": 639,
                  "fallback": true
                },
                {
                  "ratio": "16_9",
                  "url": "https://s1.ticketm.net/dam/c/060/c5c08e7a-9912-456c-a060-2758be94e060_105881_RETINA_PORTRAIT_16_9.jpg",
                  "width": 640,
                  "height": 360,
                  "fallback": true
                },
                {
                  "ratio": "3_2",
                  "url": "https://s1.ticketm.net/dam/c/060/c5c08e7a-9912-456c-a060-2758be94e060_105881_RETINA_PORTRAIT_3_2.jpg",
                  "width": 640,
                  "height": 427,
                  "fallback": true
                },
                {
                  "ratio": "16_9",
                  "url": "https://s1.ticketm.net/dam/c/060/c5c08e7a-9912-456c-a060-2758be94e060_105881_EVENT_DETAIL_PAGE_16_9.jpg",
                  "width": 205,
                  "height": 115,
                  "fallback": true
                },
                {
                  "ratio": "3_2",
                  "url": "https://s1.ticketm.net/dam/c/060/c5c08e7a-9912-456c-a060-2758be94e060_105881_TABLET_LANDSCAPE_3_2.jpg",
                  "width": 1024,
                  "height": 683,
                  "fallback": true
                },
                {
                  "ratio": "16_9",
                  "url": "https://s1.ticketm.net/dam/c/060/c5c08e7a-9912-456c-a060-2758be94e060_105881_TABLET_LANDSCAPE_LARGE_16_9.jpg",
                  "width": 2048,
                  "height": 1152,
                  "fallback": true
                },
                {
                  "ratio": "16_9",
                  "url": "https://s1.ticketm.net/dam/c/060/c5c08e7a-9912-456c-a060-2758be94e060_105881_RECOMENDATION_16_9.jpg",
                  "width": 100,
                  "height": 56,
                  "fallback": true
                },
                {
                  "ratio": "3_2",
                  "url": "https://s1.ticketm.net/dam/c/060/c5c08e7a-9912-456c-a060-2758be94e060_105881_ARTIST_PAGE_3_2.jpg",
                  "width": 305,
                  "height": 203,
                  "fallback": true
                }
              ],
              "classifications": [
                {
                  "primary": true,
                  "segment": {
                    "id": "KZFzniwnSyZfZ7v7nJ",
                    "name": "Music"
                  },
                  "genre": {
                    "id": "KnvZfZ7vAvl",
                    "name": "Other"
                  },
                  "subGenre": {
                    "id": "KZazBEonSMnZfZ7vk1I",
                    "name": "Other"
                  },
                  "family": false
                }
              ],
              "upcomingEvents": {
                "_total": 22,
                "tmr": 1,
                "ticketmaster": 21,
                "_filtered": 0
              },
              "_links": {
                "self": {
                  "href": "/discovery/v2/attractions/Z7r9jZa8PM?locale=en-us"
                }
              }
            }
          ]
        }
      }
    ]
  },
  "_links": {
    "first": {
      "href": "/discovery/v2/events.json?page=0&size=1"
    },
    "self": {
      "href": "/discovery/v2/events.json?size=1"
    },
    "next": {
      "href": "/discovery/v2/events.json?page=1&size=1"
    },
    "last": {
      "href": "/discovery/v2/events.json?page=170398&size=1"
    }
  },
  "page": {
    "size": 1,
    "totalElements": 170399,
    "totalPages": 170399,
    "number": 0
  }
}
